<?xml version="1.0" encoding="UTF-8"?>
<!-- Generator: Adobe Illustrator 19.2.1, SVG Export Plug-In . SVG Version: 6.00 Build 0)  -->
<svg version="1.1" id="Layer_1" xmlns="http://www.w3.org/2000/svg" xmlns:xlink="http://www.w3.org/1999/xlink" x="0px" y="0px" width="92px" height="92px" viewBox="0 0 92 92" enable-background="new 0 0 92 92" xml:space="preserve">
<path id="XMLID_1272_" d="M88,24H49v-9.2c0-1.7-2.2-3.8-3.8-3.8H3c-1.7,0-3,2.1-3,3.8v25.6C0,42,1.4,44,3,44h6.1l8,8.7  c0.6,0.7,1.4,0.9,2.3,0.9c0.4,0,0.5-0.1,0.9-0.3c1.2-0.4,1.8-1.6,1.8-2.9V44h6v18.6c0,2.2,2.3,4.4,4.5,4.4H60v12.2  c0,1.6,0.8,3.1,2.4,3.7c0.5,0.2,0.9,0.3,1.4,0.3c1.1,0,2.1-0.2,2.9-1L81.6,67H88c2.2,0,4-2.2,4-4.4V28.9C92,26.7,90.2,24,88,24z   M19.4,38c-1.7,0-3.4,0.7-3.4,2.4v2l-3.4-3.7C12,38,11.3,38,10.5,38H6V17h36v7h-9.5c-2.2,0-4.5,2.7-4.5,4.9V38H19.4z M84,59h-4.1  c-1.1,0-2,0.2-2.8,1L68,69.2v-6.7c0-2.2-2.1-3.6-4.3-3.6H36V32h48V59z M41.8,41c0-1.7,1.4-3,3-3h19.1c1.7,0,3,1.3,3,3s-1.4,3-3,3  H44.8C43.1,44,41.8,42.7,41.8,41z M70.9,43.1c-0.6-0.6-0.9-1.3-0.9-2.1c0-0.8,0.3-1.6,0.9-2.1c1.1-1.1,3.2-1.1,4.3,0  c0.6,0.6,0.9,1.3,0.9,2.1c0,0.8-0.3,1.6-0.9,2.1c-0.6,0.6-1.3,0.9-2.1,0.9C72.2,43.9,71.4,43.6,70.9,43.1z"/>
</svg>